\relax 
\providecommand\hyper@newdestlabel[2]{}
\@writefile{toc}{\contentsline {chapter}{\numberline {9}Version history}{223}{chapter.9}}
\@writefile{lof}{\addvspace {10\p@ }}
\@writefile{lot}{\addvspace {10\p@ }}
\newlabel{ch:version-history}{{9}{223}{Version history}{chapter.9}{}}
\@writefile{toc}{\contentsline {subsection}{\numberline {9.0.2}Version 2.0}{223}{subsection.9.0.2}}
\@writefile{toc}{\contentsline {subsection}{\numberline {9.0.3}From Version 2.0 to Version 2.0.1}{224}{subsection.9.0.3}}
\@writefile{toc}{\contentsline {subsection}{\numberline {9.0.4}From Version 2.0.1 to Version 2.1}{226}{subsection.9.0.4}}
\@writefile{toc}{\contentsline {subsection}{\numberline {9.0.5}From Version 2.1 to Version 2.2}{229}{subsection.9.0.5}}
\@writefile{toc}{\contentsline {subsection}{\numberline {9.0.6}From Version 2.2 to Version 2.3.0}{229}{subsection.9.0.6}}
\@writefile{toc}{\contentsline {subsection}{\numberline {9.0.7}From Version 2.3.0 to Version 2.3.1}{231}{subsection.9.0.7}}
\@writefile{toc}{\contentsline {subsection}{\numberline {9.0.8}From Version 2.3.1 to Version 2.4}{231}{subsection.9.0.8}}
\@writefile{toc}{\contentsline {subsection}{\numberline {9.0.9}From Version 2.4 to Version 2.5}{231}{subsection.9.0.9}}
\@writefile{toc}{\contentsline {subsection}{\numberline {9.0.10}From Version 2.5 to Version 2.6}{231}{subsection.9.0.10}}
\@writefile{toc}{\contentsline {subsection}{\numberline {9.0.11}From Version 2.6 to Version 2.7}{232}{subsection.9.0.11}}
\@writefile{toc}{\contentsline {subsection}{\numberline {9.0.12}From Version 2.7 to Version 2.7.2}{232}{subsection.9.0.12}}
\@writefile{toc}{\contentsline {subsection}{\numberline {9.0.13}From Version 2.7.2 to Version 2.8}{232}{subsection.9.0.13}}
\@writefile{toc}{\contentsline {section}{\numberline {9.1}Acknowledgments}{233}{section.9.1}}
\@writefile{lot}{\contentsline {table}{\numberline {9.1}{\ignorespaces Version comparison\relax }}{235}{table.caption.97}}
\newlabel{tab:version-history-comparison}{{9.1}{235}{Version comparison\relax }{table.caption.97}{}}
\@setckpt{version-history}{
\setcounter{page}{236}
\setcounter{equation}{0}
\setcounter{enumi}{5}
\setcounter{enumii}{0}
\setcounter{enumiii}{0}
\setcounter{enumiv}{0}
\setcounter{footnote}{0}
\setcounter{mpfootnote}{0}
\setcounter{part}{0}
\setcounter{chapter}{9}
\setcounter{section}{1}
\setcounter{subsection}{0}
\setcounter{subsubsection}{0}
\setcounter{paragraph}{0}
\setcounter{subparagraph}{0}
\setcounter{figure}{0}
\setcounter{table}{1}
\setcounter{Item}{45}
\setcounter{Hfootnote}{35}
\setcounter{bookmark@seq@number}{167}
\setcounter{FancyVerbLine}{15}
\setcounter{ContinuedFloat}{0}
\setcounter{section@level}{1}
}
